%YAML 1.1
%TAG !u! tag:unity3d.com,2011:
--- !u!114 &11400000
MonoBehaviour:
  m_ObjectHideFlags: 0
  m_CorrespondingSourceObject: {fileID: 0}
  m_PrefabInstance: {fileID: 0}
  m_PrefabAsset: {fileID: 0}
  m_GameObject: {fileID: 0}
  m_Enabled: 1
  m_EditorHideFlags: 0
  m_Script: {fileID: 11500000, guid: 0bb07236725e0ed48a14b2627a30dd5b, type: 3}
  m_Name: hitred
  m_EditorClassIdentifier: 
  hasExitTime: 1
  exitTime: 1
  onFinish: 0
  nextState: {fileID: 0}
  clip:
    animationClip: {fileID: 7400000, guid: 175fe229c43132648a6279dc80b3d61f, type: 2}
    flip: 1
