%YAML 1.1
%TAG !u! tag:unity3d.com,2011:
--- !u!74 &7400000
AnimationClip:
  m_ObjectHideFlags: 0
  m_CorrespondingSourceObject: {fileID: 0}
  m_PrefabInstance: {fileID: 0}
  m_PrefabAsset: {fileID: 0}
  m_Name: robothitblue
  serializedVersion: 6
  m_Legacy: 0
  m_Compressed: 0
  m_UseHighQualityCurve: 1
  m_RotationCurves: []
  m_CompressedRotationCurves: []
  m_EulerCurves: []
  m_PositionCurves: []
  m_ScaleCurves: []
  m_FloatCurves: []
  m_PPtrCurves:
  - curve:
    - time: 0
      value: {fileID: -3140454972210361682, guid: 851bbd6b275be7443a1672f86ff66aeb,
        type: 3}
    - time: 0.083333336
      value: {fileID: 5213412602161754717, guid: 851bbd6b275be7443a1672f86ff66aeb,
        type: 3}
    - time: 0.16666667
      value: {fileID: 1596994823858224027, guid: 851bbd6b275be7443a1672f86ff66aeb,
        type: 3}
    - time: 0.25
      value: {fileID: -5711580057262629622, guid: 851bbd6b275be7443a1672f86ff66aeb,
        type: 3}
    - time: 0.33333334
      value: {fileID: 1750843300604854718, guid: 851bbd6b275be7443a1672f86ff66aeb,
        type: 3}
    - time: 0.41666666
      value: {fileID: -4454290892146964372, guid: 851bbd6b275be7443a1672f86ff66aeb,
        type: 3}
    - time: 0.5
      value: {fileID: -5710105785388585301, guid: 851bbd6b275be7443a1672f86ff66aeb,
        type: 3}
    attribute: m_Sprite
    path: 
    classID: 212
    script: {fileID: 0}
  m_SampleRate: 12
  m_WrapMode: 0
  m_Bounds:
    m_Center: {x: 0, y: 0, z: 0}
    m_Extent: {x: 0, y: 0, z: 0}
  m_ClipBindingConstant:
    genericBindings:
    - serializedVersion: 2
      path: 0
      attribute: 0
      script: {fileID: 0}
      typeID: 212
      customType: 23
      isPPtrCurve: 1
    pptrCurveMapping:
    - {fileID: -3140454972210361682, guid: 851bbd6b275be7443a1672f86ff66aeb, type: 3}
    - {fileID: 5213412602161754717, guid: 851bbd6b275be7443a1672f86ff66aeb, type: 3}
    - {fileID: 1596994823858224027, guid: 851bbd6b275be7443a1672f86ff66aeb, type: 3}
    - {fileID: -5711580057262629622, guid: 851bbd6b275be7443a1672f86ff66aeb, type: 3}
    - {fileID: 1750843300604854718, guid: 851bbd6b275be7443a1672f86ff66aeb, type: 3}
    - {fileID: -4454290892146964372, guid: 851bbd6b275be7443a1672f86ff66aeb, type: 3}
    - {fileID: -5710105785388585301, guid: 851bbd6b275be7443a1672f86ff66aeb, type: 3}
  m_AnimationClipSettings:
    serializedVersion: 2
    m_AdditiveReferencePoseClip: {fileID: 0}
    m_AdditiveReferencePoseTime: 0
    m_StartTime: 0
    m_StopTime: 0.5833333
    m_OrientationOffsetY: 0
    m_Level: 0
    m_CycleOffset: 0
    m_HasAdditiveReferencePose: 0
    m_LoopTime: 1
    m_LoopBlend: 0
    m_LoopBlendOrientation: 0
    m_LoopBlendPositionY: 0
    m_LoopBlendPositionXZ: 0
    m_KeepOriginalOrientation: 0
    m_KeepOriginalPositionY: 1
    m_KeepOriginalPositionXZ: 0
    m_HeightFromFeet: 0
    m_Mirror: 0
  m_EditorCurves: []
  m_EulerEditorCurves: []
  m_HasGenericRootTransform: 0
  m_HasMotionFloatCurves: 0
  m_Events: []
