%YAML 1.1
%TAG !u! tag:unity3d.com,2011:
--- !u!78 &1
TagManager:
  serializedVersion: 2
  tags:
  - wall
  - Bitcoin
  - Wall
  - Fastcoin
  - BigButton
  - goal
  - Slider
  - filet
  - bumper
  layers:
  - Default
  - TransparentFX
  - Ignore Raycast
  - 
  - Water
  - UI
  - 
  - 
  - Wall
  - Bitcoin
  - red
  - blue
  - Center
  - Fastcoin
  - Pushed
  - Dash
  - Goal
  - Post process
  - 
  - 
  - 
  - 
  - 
  - 
  - 
  - 
  - 
  - 
  - 
  - 
  - 
  - 
  m_SortingLayers:
  - name: Terrain
    uniqueID: 594636571
    locked: 0
  - name: Default
    uniqueID: 0
    locked: 0
