%YAML 1.1
%TAG !u! tag:unity3d.com,2011:
--- !u!114 &11400000
MonoBehaviour:
  m_ObjectHideFlags: 0
  m_CorrespondingSourceObject: {fileID: 0}
  m_PrefabInstance: {fileID: 0}
  m_PrefabAsset: {fileID: 0}
  m_GameObject: {fileID: 0}
  m_Enabled: 1
  m_EditorHideFlags: 0
  m_Script: {fileID: 11500000, guid: 5285fefe9d966e2408f605b1eee69ee5, type: 3}
  m_Name: AnimState_Horizontal
  m_EditorClassIdentifier: 
  hasExitTime: 0
  exitTime: 1
  onFinish: 0
  nextState: {fileID: 0}
  left:
    animationClip: {fileID: 7400000, guid: 247ed9bb08c5c06468886c7a3ff45ba4, type: 2}
    flip: 0
  right:
    animationClip: {fileID: 7400000, guid: d5160be9772cb224888f88827a69532a, type: 2}
    flip: 0
  deadZone: 0.01
