%YAML 1.1
%TAG !u! tag:unity3d.com,2011:
--- !u!114 &11400000
MonoBehaviour:
  m_ObjectHideFlags: 0
  m_CorrespondingSourceObject: {fileID: 0}
  m_PrefabInstance: {fileID: 0}
  m_PrefabAsset: {fileID: 0}
  m_GameObject: {fileID: 0}
  m_Enabled: 1
  m_EditorHideFlags: 0
  m_Script: {fileID: 11500000, guid: 81110f89727ba2e4cb8cea0528960402, type: 3}
  m_Name: Robotdude_mouv
  m_EditorClassIdentifier: 
  hasExitTime: 0
  exitTime: 1
  onFinish: 0
  nextState: {fileID: 0}
  up:
    animationClip: {fileID: 7400000, guid: b24b2ab63e9726043858cf2245a20bd2, type: 2}
    flip: 0
  upRight:
    animationClip: {fileID: 7400000, guid: 90d71bb19edf5424e94c8c98f32364d5, type: 2}
    flip: 0
  right:
    animationClip: {fileID: 7400000, guid: 506531968df8ca944b18e38ae7ebb584, type: 2}
    flip: 0
  downRight:
    animationClip: {fileID: 7400000, guid: 061c9cf61bd72af409844e4b9e71c204, type: 2}
    flip: 0
  down:
    animationClip: {fileID: 7400000, guid: b24b2ab63e9726043858cf2245a20bd2, type: 2}
    flip: 0
  downLeft:
    animationClip: {fileID: 7400000, guid: 90d71bb19edf5424e94c8c98f32364d5, type: 2}
    flip: 0
  left:
    animationClip: {fileID: 7400000, guid: 506531968df8ca944b18e38ae7ebb584, type: 2}
    flip: 0
  upLeft:
    animationClip: {fileID: 7400000, guid: 061c9cf61bd72af409844e4b9e71c204, type: 2}
    flip: 0
