%YAML 1.1
%TAG !u! tag:unity3d.com,2011:
--- !u!114 &11400000
MonoBehaviour:
  m_ObjectHideFlags: 0
  m_CorrespondingSourceObject: {fileID: 0}
  m_PrefabInstance: {fileID: 0}
  m_PrefabAsset: {fileID: 0}
  m_GameObject: {fileID: 0}
  m_Enabled: 1
  m_EditorHideFlags: 0
  m_Script: {fileID: 11500000, guid: 0bb07236725e0ed48a14b2627a30dd5b, type: 3}
  m_Name: moulinidle
  m_EditorClassIdentifier: 
  hasExitTime: 0
  exitTime: 1
  onFinish: 0
  nextState: {fileID: 0}
  clip:
    animationClip: {fileID: 7400000, guid: 6fe9a756120c41146b193193a12257c0, type: 2}
    flip: 0
