%YAML 1.1
%TAG !u! tag:unity3d.com,2011:
--- !u!74 &7400000
AnimationClip:
  m_ObjectHideFlags: 0
  m_CorrespondingSourceObject: {fileID: 0}
  m_PrefabInstance: {fileID: 0}
  m_PrefabAsset: {fileID: 0}
  m_Name: moulindudeidle
  serializedVersion: 6
  m_Legacy: 0
  m_Compressed: 0
  m_UseHighQualityCurve: 1
  m_RotationCurves: []
  m_CompressedRotationCurves: []
  m_EulerCurves: []
  m_PositionCurves: []
  m_ScaleCurves: []
  m_FloatCurves: []
  m_PPtrCurves:
  - curve:
    - time: 0
      value: {fileID: 3888064162571212281, guid: a469de54cc5f6b24380badef6e54fb66,
        type: 3}
    - time: 0.083333336
      value: {fileID: 6277557857944454942, guid: a469de54cc5f6b24380badef6e54fb66,
        type: 3}
    - time: 0.16666667
      value: {fileID: 4118509151540899078, guid: a469de54cc5f6b24380badef6e54fb66,
        type: 3}
    - time: 0.25
      value: {fileID: -464798318797470066, guid: a469de54cc5f6b24380badef6e54fb66,
        type: 3}
    - time: 0.33333334
      value: {fileID: -7305570723562363271, guid: a469de54cc5f6b24380badef6e54fb66,
        type: 3}
    - time: 0.41666666
      value: {fileID: -3189795601885567613, guid: a469de54cc5f6b24380badef6e54fb66,
        type: 3}
    - time: 0.5
      value: {fileID: 4841916340518780893, guid: a469de54cc5f6b24380badef6e54fb66,
        type: 3}
    - time: 0.5833333
      value: {fileID: -6971535348914288607, guid: a469de54cc5f6b24380badef6e54fb66,
        type: 3}
    - time: 0.6666667
      value: {fileID: -8788992011048280404, guid: a469de54cc5f6b24380badef6e54fb66,
        type: 3}
    - time: 0.75
      value: {fileID: 4698501912564142770, guid: a469de54cc5f6b24380badef6e54fb66,
        type: 3}
    - time: 0.8333333
      value: {fileID: -3535181973267133625, guid: a469de54cc5f6b24380badef6e54fb66,
        type: 3}
    - time: 0.9166667
      value: {fileID: 3507729314885652187, guid: a469de54cc5f6b24380badef6e54fb66,
        type: 3}
    - time: 1
      value: {fileID: 8292077687544573185, guid: a469de54cc5f6b24380badef6e54fb66,
        type: 3}
    - time: 1.0833334
      value: {fileID: 3631983281958663076, guid: a469de54cc5f6b24380badef6e54fb66,
        type: 3}
    - time: 1.1666666
      value: {fileID: 3963794035104406545, guid: a469de54cc5f6b24380badef6e54fb66,
        type: 3}
    - time: 1.25
      value: {fileID: -4719422277642714469, guid: a469de54cc5f6b24380badef6e54fb66,
        type: 3}
    attribute: m_Sprite
    path: 
    classID: 212
    script: {fileID: 0}
  m_SampleRate: 12
  m_WrapMode: 0
  m_Bounds:
    m_Center: {x: 0, y: 0, z: 0}
    m_Extent: {x: 0, y: 0, z: 0}
  m_ClipBindingConstant:
    genericBindings:
    - serializedVersion: 2
      path: 0
      attribute: 0
      script: {fileID: 0}
      typeID: 212
      customType: 23
      isPPtrCurve: 1
    pptrCurveMapping:
    - {fileID: 3888064162571212281, guid: a469de54cc5f6b24380badef6e54fb66, type: 3}
    - {fileID: 6277557857944454942, guid: a469de54cc5f6b24380badef6e54fb66, type: 3}
    - {fileID: 4118509151540899078, guid: a469de54cc5f6b24380badef6e54fb66, type: 3}
    - {fileID: -464798318797470066, guid: a469de54cc5f6b24380badef6e54fb66, type: 3}
    - {fileID: -7305570723562363271, guid: a469de54cc5f6b24380badef6e54fb66, type: 3}
    - {fileID: -3189795601885567613, guid: a469de54cc5f6b24380badef6e54fb66, type: 3}
    - {fileID: 4841916340518780893, guid: a469de54cc5f6b24380badef6e54fb66, type: 3}
    - {fileID: -6971535348914288607, guid: a469de54cc5f6b24380badef6e54fb66, type: 3}
    - {fileID: -8788992011048280404, guid: a469de54cc5f6b24380badef6e54fb66, type: 3}
    - {fileID: 4698501912564142770, guid: a469de54cc5f6b24380badef6e54fb66, type: 3}
    - {fileID: -3535181973267133625, guid: a469de54cc5f6b24380badef6e54fb66, type: 3}
    - {fileID: 3507729314885652187, guid: a469de54cc5f6b24380badef6e54fb66, type: 3}
    - {fileID: 8292077687544573185, guid: a469de54cc5f6b24380badef6e54fb66, type: 3}
    - {fileID: 3631983281958663076, guid: a469de54cc5f6b24380badef6e54fb66, type: 3}
    - {fileID: 3963794035104406545, guid: a469de54cc5f6b24380badef6e54fb66, type: 3}
    - {fileID: -4719422277642714469, guid: a469de54cc5f6b24380badef6e54fb66, type: 3}
  m_AnimationClipSettings:
    serializedVersion: 2
    m_AdditiveReferencePoseClip: {fileID: 0}
    m_AdditiveReferencePoseTime: 0
    m_StartTime: 0
    m_StopTime: 1.3333334
    m_OrientationOffsetY: 0
    m_Level: 0
    m_CycleOffset: 0
    m_HasAdditiveReferencePose: 0
    m_LoopTime: 1
    m_LoopBlend: 0
    m_LoopBlendOrientation: 0
    m_LoopBlendPositionY: 0
    m_LoopBlendPositionXZ: 0
    m_KeepOriginalOrientation: 0
    m_KeepOriginalPositionY: 1
    m_KeepOriginalPositionXZ: 0
    m_HeightFromFeet: 0
    m_Mirror: 0
  m_EditorCurves: []
  m_EulerEditorCurves: []
  m_HasGenericRootTransform: 0
  m_HasMotionFloatCurves: 0
  m_Events: []
