%YAML 1.1
%TAG !u! tag:unity3d.com,2011:
--- !u!114 &11400000
MonoBehaviour:
  m_ObjectHideFlags: 0
  m_CorrespondingSourceObject: {fileID: 0}
  m_PrefabInstance: {fileID: 0}
  m_PrefabAsset: {fileID: 0}
  m_GameObject: {fileID: 0}
  m_Enabled: 1
  m_EditorHideFlags: 0
  m_Script: {fileID: 11500000, guid: 5285fefe9d966e2408f605b1eee69ee5, type: 3}
  m_Name: redmovmoulin
  m_EditorClassIdentifier: 
  hasExitTime: 0
  exitTime: 1
  onFinish: 0
  nextState: {fileID: 0}
  left:
    animationClip: {fileID: 7400000, guid: 42d22f9d89c6c9b4bbc644266e889307, type: 2}
    flip: 1
  right:
    animationClip: {fileID: 7400000, guid: f2c47bc4804c0d14a81e57ae82c7d3f3, type: 2}
    flip: 1
  deadZone: 0.01
